Homework #2
…
## [1] 31

Cars and mileage

For this part we will use the mpg data set, you can access the data by loading the package ggplot2 into your R session by executing the command library(ggplot2). The mpg data includes information about fuel economy of popular car models for the years 1999 and 2008 as collected by the US Environmental Protection Agency. An answer should include a short paragraph of text for the explanation to a (human) reader, together with appropriate R code, outputs, and graphs.

Most exercises are from the ggplot2 book section 2.2.1. You might find it helpful for working on the homework to read through this section.

library(ggplot2)
library(forcats)
mpg

## # A tibble: 234 x 11
##    manufacturer model displ  year   cyl trans drv     cty   hwy fl    class
##    <chr>        <chr> <dbl> <int> <int> <chr> <chr> <int> <int> <chr> <chr>
##  1 audi         a4      1.8  1999     4 auto f        18    29 p     comp
##  2 audi         a4      1.8  1999     4 manu f        21    29 p     comp
##  3 audi         a4      2    2008     4 manu f        20    31 p     comp
##  4 audi         a4      2    2008     4 auto f        21    30 p     comp
##  5 audi         a4      2.8  1999     6 auto f        16    26 p     comp
##  6 audi         a4      2.8  1999     6 manu f        18    26 p     comp
##  7 audi         a4      3.1  2008     6 auto f        18    27 p     comp
##  8 audi         a4 q   1.8  1999     4 manu 4        18    26 p     comp
##  9 audi         a4 q   1.8  1999     4 auto 4        16    25 p     comp
## 10 audi         a4 q   2    2008     4 manu 4        20    28 p     comp
## #  with 224 more rows
…
Using the ggplot packages I was able to create a bar chart that plots the 3 most fuel-efficient models in terms of highway mileage. We can see from the bar plot that corolla, civic, and new beetle are the most fuel-efficient models based on highway mileage. Also, the plot list the fuel-efficiency of every model based on highway mileage. I was able to re-order the models of cars using the forcats package.

How many different compact models are included in this dataset? Storage the answer in a variable named numCompact and print.

Answer(2)

CompactData <- subset(mpg, class == 'compact')
print(CompactData)

## # A tibble: 47 x 11
##    manufacturer model displ  year   cyl trans drv     cty   hwy fl    class
##    <chr>        <chr> <dbl> <int> <int> <chr> <chr> <int> <int> <chr> <chr>
##  1 audi         a4      1.8  1999     4 auto f        18    29 p     comp
##  2 audi         a4      1.8  1999     4 manu f        21    29 p     comp
##  3 audi         a4      2    2008     4 manu f        20    31 p     comp
##  4 audi         a4      2    2008     4 auto f        21    30 p     comp
##  5 audi         a4      2.8  1999     6 auto f        16    26 p     comp
##  6 audi         a4      2.8  1999     6 manu f        18    26 p     comp
##  7 audi         a4      3.1  2008     6 auto f        18    27 p     comp
##  8 audi         a4 q   1.8  1999     4 manu 4        18    26 p     comp
##  9 audi         a4 q   1.8  1999     4 auto 4        16    25 p     comp
## 10 audi         a4 q   2    2008     4 manu 4        20    28 p     comp
## #  with 37 more rows
…
